%YAML 1.1
%TAG !u! tag:unity3d.com,2011:
--- !u!78 &1
TagManager:
  serializedVersion: 2
  tags:
  - SnapCube
  - ExcludeTeleport
  - Leg
  - Arm
  - SnapCylinder
  - Saucers
  - Torso
  - Head
  - SnapHandle
  - SnapCandle
  - SnapWindow1
  - SnapWindow2
  - SnapWindow3
  - SnapWindow4
  - SnapCork
  - TeleportIgnore
  - SnapShield
  - SnapKettle
  layers:
  - Default
  - TransparentFX
  - Ignore Raycast
  - 
  - Water
  - UI
  - 
  - 
  - PostProcessing
  - 
  - 
  - 
  - 
  - 
  - 
  - 
  - 
  - 
  - 
  - 
  - 
  - 
  - 
  - 
  - 
  - 
  - 
  - 
  - 
  - 
  - 
  - 
  m_SortingLayers:
  - name: Default
    uniqueID: 0
    locked: 0
